<svg width="48" height="48" viewBox="0 0 48 48" fill="none" xmlns="http://www.w3.org/2000/svg">
<path d="M15.5 25.0816L21.9256 18.6327L25.5714 22.2786L25.9244 22.6315L26.2779 22.2792L32.375 16.204V17.4424L25.9256 23.8685L22.2786 20.2214L21.9244 19.8673L21.5708 20.2221L15.5 26.3148V25.0816ZM15.5 32.275V31.0821L16.375 30.2071V32.275H15.5ZM19.5 32.275V27.0821L20.375 26.2071V32.275H19.5ZM23.5 32.275V26.2185L24.375 27.1052V32.275H23.5ZM27.5 32.275V27.1071L28.375 26.2321V32.275H27.5ZM31.5 32.275V23.0821L32.375 22.2071V32.275H31.5Z" fill="#413E45" stroke="#413E45"/>
</svg>
