<svg width="48" height="48" viewBox="0 0 48 48" fill="none" xmlns="http://www.w3.org/2000/svg">
<path d="M21.3066 29.938L21.3243 29.9539L21.3434 29.9681C21.4905 30.0773 21.6499 30.1635 21.8215 30.2218C21.9928 30.281 22.1705 30.3103 22.3521 30.3103C22.5333 30.3103 22.7116 30.2812 22.8853 30.2257C23.0736 30.1662 23.2467 30.0725 23.3954 29.9399L27.987 25.8476C28.286 25.5811 28.455 25.2332 28.455 24.8284C28.455 24.4146 28.2688 24.0688 27.96 23.8099C27.668 23.5332 27.307 23.391 26.9033 23.391C26.4931 23.391 26.1251 23.5368 25.8185 23.8101L22.3521 26.8995L21.0996 25.7831L21.0915 25.776L21.0832 25.7692C20.782 25.5231 20.4307 25.3885 20.0432 25.3885C19.6424 25.3885 19.2853 25.5404 18.9857 25.8075C18.6869 26.0737 18.5177 26.4212 18.5177 26.8258C18.5177 27.2301 18.6862 27.5776 18.9844 27.844C18.9848 27.8443 18.9852 27.8447 18.9857 27.8451L21.3066 29.938ZM25.9551 15.9092L25.9561 15.91L31.066 20.4399C31.0662 20.44 31.0663 20.4402 31.0664 20.4403C31.2175 20.575 31.3232 20.7206 31.3927 20.8772C31.4671 21.0469 31.5 21.2059 31.5 21.3577V32.1731C31.5 32.5235 31.3685 32.8213 31.066 33.0908C30.7618 33.362 30.3993 33.5 29.9502 33.5H17.0498C16.6007 33.5 16.2382 33.362 15.934 33.0908C15.6315 32.8213 15.5 32.5235 15.5 32.1731V16.8269C15.5 16.4765 15.6315 16.1787 15.934 15.9092C16.2382 15.638 16.6007 15.5 17.0498 15.5H24.8392C25.0568 15.5 25.2587 15.5352 25.448 15.6034C25.6324 15.6708 25.8008 15.7716 25.9551 15.9092ZM29.9502 22.0282H31.2627L30.2828 21.1549L25.0079 16.4537L24.1752 15.7115V16.8269V20.6269C24.1752 21.0274 24.3305 21.3792 24.6301 21.6462C24.9254 21.9094 25.2906 22.0282 25.6865 22.0282H29.9502Z" fill="#413E45" stroke="#413E45"/>
</svg>
