<svg width="48" height="48" viewBox="0 0 48 48" fill="none" xmlns="http://www.w3.org/2000/svg">
<mask id="mask0_1226_8481" style="mask-type:alpha" maskUnits="userSpaceOnUse" x="12" y="12" width="24" height="24">
<rect x="12" y="12" width="24" height="24" fill="#D9D9D9"/>
</mask>
<g mask="url(#mask0_1226_8481)">
<path d="M17.1001 32.7751C16.5834 32.7751 16.1418 32.5918 15.7751 32.2251C15.4084 31.8584 15.2251 31.4168 15.2251 30.9001V17.1001C15.2251 16.5834 15.4084 16.1418 15.7751 15.7751C16.1418 15.4084 16.5834 15.2251 17.1001 15.2251H30.9001C31.4168 15.2251 31.8584 15.4084 32.2251 15.7751C32.5918 16.1418 32.7751 16.5834 32.7751 17.1001V30.9001C32.7751 31.4168 32.5918 31.8584 32.2251 32.2251C31.8584 32.5918 31.4168 32.7751 30.9001 32.7751H17.1001ZM20.0751 28.8251C20.3418 28.8251 20.5668 28.7334 20.7501 28.5501C20.9334 28.3668 21.0251 28.1501 21.0251 27.9001C21.0251 27.6334 20.9334 27.4084 20.7501 27.2251C20.5668 27.0418 20.3418 26.9501 20.0751 26.9501C19.8251 26.9501 19.6084 27.0418 19.4251 27.2251C19.2418 27.4084 19.1501 27.6334 19.1501 27.9001C19.1501 28.1501 19.2418 28.3668 19.4251 28.5501C19.6084 28.7334 19.8251 28.8251 20.0751 28.8251ZM20.0751 24.9251C20.3418 24.9251 20.5668 24.8334 20.7501 24.6501C20.9334 24.4668 21.0251 24.2501 21.0251 24.0001C21.0251 23.7334 20.9334 23.5084 20.7501 23.3251C20.5668 23.1418 20.3418 23.0501 20.0751 23.0501C19.8251 23.0501 19.6084 23.1418 19.4251 23.3251C19.2418 23.5084 19.1501 23.7334 19.1501 24.0001C19.1501 24.2501 19.2418 24.4668 19.4251 24.6501C19.6084 24.8334 19.8251 24.9251 20.0751 24.9251ZM20.0751 21.0001C20.3418 21.0001 20.5668 20.9084 20.7501 20.7251C20.9334 20.5418 21.0251 20.3251 21.0251 20.0751C21.0251 19.8084 20.9334 19.5834 20.7501 19.4001C20.5668 19.2168 20.3418 19.1251 20.0751 19.1251C19.8251 19.1251 19.6084 19.2168 19.4251 19.4001C19.2418 19.5834 19.1501 19.8084 19.1501 20.0751C19.1501 20.3251 19.2418 20.5418 19.4251 20.7251C19.6084 20.9084 19.8251 21.0001 20.0751 21.0001ZM23.9751 28.8501H27.9501C28.2001 28.8501 28.4168 28.7584 28.6001 28.5751C28.7834 28.3918 28.8751 28.1668 28.8751 27.9001C28.8751 27.6501 28.7834 27.4334 28.6001 27.2501C28.4168 27.0668 28.2001 26.9751 27.9501 26.9751H23.9751C23.7084 26.9751 23.4834 27.0668 23.3001 27.2501C23.1168 27.4334 23.0251 27.6501 23.0251 27.9001C23.0251 28.1668 23.1168 28.3918 23.3001 28.5751C23.4834 28.7584 23.7084 28.8501 23.9751 28.8501ZM23.9751 24.9251H27.9501C28.2001 24.9251 28.4168 24.8334 28.6001 24.6501C28.7834 24.4668 28.8751 24.2418 28.8751 23.9751C28.8751 23.7251 28.7834 23.5084 28.6001 23.3251C28.4168 23.1418 28.2001 23.0501 27.9501 23.0501H23.9751C23.7084 23.0501 23.4834 23.1418 23.3001 23.3251C23.1168 23.5084 23.0251 23.7251 23.0251 23.9751C23.0251 24.2418 23.1168 24.4668 23.3001 24.6501C23.4834 24.8334 23.7084 24.9251 23.9751 24.9251ZM23.9751 21.0251H27.9501C28.2001 21.0251 28.4168 20.9334 28.6001 20.7501C28.7834 20.5668 28.8751 20.3418 28.8751 20.0751C28.8751 19.8251 28.7834 19.6084 28.6001 19.4251C28.4168 19.2418 28.2001 19.1501 27.9501 19.1501H23.9751C23.7084 19.1501 23.4834 19.2418 23.3001 19.4251C23.1168 19.6084 23.0251 19.8251 23.0251 20.0751C23.0251 20.3418 23.1168 20.5668 23.3001 20.7501C23.4834 20.9334 23.7084 21.0251 23.9751 21.0251Z" fill="white"/>
</g>
</svg>
