<svg width="48" height="48" viewBox="0 0 48 48" fill="none" xmlns="http://www.w3.org/2000/svg">
<mask id="mask0_248_10557" style="mask-type:alpha" maskUnits="userSpaceOnUse" x="12" y="12" width="24" height="24">
<rect x="12" y="12" width="24" height="24" fill="#D9D9D9"/>
</mask>
<g mask="url(#mask0_248_10557)">
<path d="M16.8636 27.4091C16.0682 27.4091 15.392 27.1307 14.8352 26.5739C14.2784 26.017 14 25.3409 14 24.5455C14 23.75 14.2784 23.0739 14.8352 22.517C15.392 21.9602 16.0682 21.6818 16.8636 21.6818V19.7727C16.8636 19.2477 17.0507 18.7985 17.4249 18.4249C17.7985 18.0507 18.2477 17.8636 18.7727 17.8636H21.6364C21.6364 17.0682 21.9148 16.392 22.4716 15.8352C23.0284 15.2784 23.7045 15 24.5 15C25.2955 15 25.9716 15.2784 26.5284 15.8352C27.0852 16.392 27.3636 17.0682 27.3636 17.8636H30.2273C30.7523 17.8636 31.2019 18.0507 31.576 18.4249C31.9496 18.7985 32.1364 19.2477 32.1364 19.7727V21.6818C32.9318 21.6818 33.608 21.9602 34.1648 22.517C34.7216 23.0739 35 23.75 35 24.5455C35 25.3409 34.7216 26.017 34.1648 26.5739C33.608 27.1307 32.9318 27.4091 32.1364 27.4091V31.2273C32.1364 31.7523 31.9496 32.2019 31.576 32.576C31.2019 32.9496 30.7523 33.1364 30.2273 33.1364H18.7727C18.2477 33.1364 17.7985 32.9496 17.4249 32.576C17.0507 32.2019 16.8636 31.7523 16.8636 31.2273V27.4091ZM21.6364 25.5C22.0341 25.5 22.372 25.3606 22.6501 25.0819C22.9288 24.8038 23.0682 24.4659 23.0682 24.0682C23.0682 23.6705 22.9288 23.3325 22.6501 23.0545C22.372 22.7757 22.0341 22.6364 21.6364 22.6364C21.2386 22.6364 20.9007 22.7757 20.6226 23.0545C20.3439 23.3325 20.2045 23.6705 20.2045 24.0682C20.2045 24.4659 20.3439 24.8038 20.6226 25.0819C20.9007 25.3606 21.2386 25.5 21.6364 25.5ZM27.3636 25.5C27.7614 25.5 28.0993 25.3606 28.3774 25.0819C28.6561 24.8038 28.7955 24.4659 28.7955 24.0682C28.7955 23.6705 28.6561 23.3325 28.3774 23.0545C28.0993 22.7757 27.7614 22.6364 27.3636 22.6364C26.9659 22.6364 26.628 22.7757 26.3499 23.0545C26.0712 23.3325 25.9318 23.6705 25.9318 24.0682C25.9318 24.4659 26.0712 24.8038 26.3499 25.0819C26.628 25.3606 26.9659 25.5 27.3636 25.5ZM20.6818 29.3182H28.3182V27.4091H20.6818V29.3182Z" fill="white"/>
</g>
</svg>
