<svg width="48" height="48" viewBox="0 0 48 48" fill="none" xmlns="http://www.w3.org/2000/svg">
<mask id="mask0_1430_8687" style="mask-type:alpha" maskUnits="userSpaceOnUse" x="12" y="12" width="24" height="24">
<rect x="12" y="12" width="24" height="24" fill="#D9D9D9"/>
</mask>
<g mask="url(#mask0_1430_8687)">
<path d="M19.2 18.1748C18.8667 18.1748 18.5833 18.2915 18.35 18.5248C18.1167 18.7581 18 19.0498 18 19.3998C18 19.7331 18.1167 20.0165 18.35 20.2498C18.5833 20.4831 18.875 20.5998 19.225 20.5998C19.5583 20.5998 19.8417 20.4831 20.075 20.2498C20.3083 20.0165 20.425 19.7248 20.425 19.3748C20.425 19.0415 20.3083 18.7581 20.075 18.5248C19.8417 18.2915 19.55 18.1748 19.2 18.1748ZM19.2 28.3748C18.8667 28.3748 18.5833 28.4956 18.35 28.7373C18.1167 28.979 18 29.2748 18 29.6248C18 29.9581 18.1167 30.2415 18.35 30.4748C18.5833 30.7081 18.875 30.8248 19.225 30.8248C19.5583 30.8248 19.8417 30.7081 20.075 30.4748C20.3083 30.2415 20.425 29.9498 20.425 29.5998C20.425 29.2665 20.3083 28.979 20.075 28.7373C19.8417 28.4956 19.55 28.3748 19.2 28.3748ZM15.95 15.1748H32.025C32.2917 15.1748 32.5042 15.2498 32.6625 15.3998C32.8208 15.5498 32.9 15.7581 32.9 16.0248V22.6248C32.9 22.9248 32.8208 23.1665 32.6625 23.3498C32.5042 23.5331 32.2917 23.6248 32.025 23.6248H15.95C15.7167 23.6248 15.5208 23.5331 15.3625 23.3498C15.2042 23.1665 15.125 22.9248 15.125 22.6248V16.0248C15.125 15.7581 15.2042 15.5498 15.3625 15.3998C15.5208 15.2498 15.7167 15.1748 15.95 15.1748ZM15.95 25.3498H31.925C32.175 25.3498 32.4 25.454 32.6 25.6623C32.8 25.8706 32.9 26.1081 32.9 26.3748V32.8248C32.9 33.1748 32.8 33.4331 32.6 33.5998C32.4 33.7665 32.175 33.8498 31.925 33.8498H16.075C15.825 33.8498 15.6042 33.7665 15.4125 33.5998C15.2208 33.4331 15.125 33.1748 15.125 32.8248V26.3748C15.125 26.1081 15.2042 25.8706 15.3625 25.6623C15.5208 25.454 15.7167 25.3498 15.95 25.3498Z" fill="white"/>
</g>
</svg>
