<svg width="48" height="48" viewBox="0 0 48 48" fill="none" xmlns="http://www.w3.org/2000/svg">
<mask id="mask0_1424_8695" style="mask-type:alpha" maskUnits="userSpaceOnUse" x="12" y="12" width="24" height="24">
<rect x="12" y="12" width="24" height="24" fill="#D9D9D9"/>
</mask>
<g mask="url(#mask0_1424_8695)">
<path d="M12.7498 29.9504C12.5498 29.9504 12.3831 29.8837 12.2498 29.7504C12.1165 29.6171 12.0498 29.4504 12.0498 29.2504V28.6754C12.0498 28.0254 12.3873 27.5046 13.0623 27.1129C13.7373 26.7212 14.6331 26.5254 15.7498 26.5254C15.9665 26.5254 16.1748 26.5337 16.3748 26.5504C16.5748 26.5671 16.7665 26.5837 16.9498 26.6004C16.8331 26.8837 16.7415 27.1712 16.6748 27.4629C16.6081 27.7546 16.5748 28.0671 16.5748 28.4004V29.9504H12.7498ZM18.7498 29.9504C18.5498 29.9504 18.3831 29.8837 18.2498 29.7504C18.1165 29.6171 18.0498 29.4504 18.0498 29.2504V28.4004C18.0498 27.3337 18.5998 26.4629 19.6998 25.7879C20.7998 25.1129 22.2331 24.7754 23.9998 24.7754C25.7998 24.7754 27.2456 25.1087 28.3373 25.7754C29.429 26.4421 29.9748 27.3171 29.9748 28.4004V29.2504C29.9748 29.4504 29.904 29.6171 29.7623 29.7504C29.6206 29.8837 29.4498 29.9504 29.2498 29.9504H18.7498ZM31.4498 29.9504V28.4004C31.4498 28.0671 31.4165 27.7546 31.3498 27.4629C31.2831 27.1712 31.1831 26.8837 31.0498 26.6004C31.2331 26.5671 31.4248 26.5462 31.6248 26.5379C31.8248 26.5296 32.0331 26.5254 32.2498 26.5254C33.3665 26.5254 34.2665 26.7212 34.9498 27.1129C35.6331 27.5046 35.9748 28.0254 35.9748 28.6754V29.2504C35.9748 29.4504 35.904 29.6171 35.7623 29.7504C35.6206 29.8837 35.4498 29.9504 35.2498 29.9504H31.4498ZM15.7498 25.7004C15.2831 25.7004 14.8831 25.5337 14.5498 25.2004C14.2165 24.8671 14.0498 24.4671 14.0498 24.0004C14.0498 23.5171 14.2165 23.1087 14.5498 22.7754C14.8831 22.4421 15.2831 22.2754 15.7498 22.2754C16.2331 22.2754 16.6415 22.4462 16.9748 22.7879C17.3081 23.1296 17.4748 23.5337 17.4748 24.0004C17.4748 24.4671 17.304 24.8671 16.9623 25.2004C16.6206 25.5337 16.2165 25.7004 15.7498 25.7004ZM32.2498 25.7004C31.7831 25.7004 31.3831 25.5337 31.0498 25.2004C30.7165 24.8671 30.5498 24.4671 30.5498 24.0004C30.5498 23.5171 30.7165 23.1087 31.0498 22.7754C31.3831 22.4421 31.7831 22.2754 32.2498 22.2754C32.7331 22.2754 33.1415 22.4462 33.4748 22.7879C33.8081 23.1296 33.9748 23.5337 33.9748 24.0004C33.9748 24.4671 33.804 24.8671 33.4623 25.2004C33.1206 25.5337 32.7165 25.7004 32.2498 25.7004ZM23.9998 23.9504C23.1831 23.9504 22.4873 23.6629 21.9123 23.0879C21.3373 22.5129 21.0498 21.8171 21.0498 21.0004C21.0498 20.1671 21.3373 19.4629 21.9123 18.8879C22.4873 18.3129 23.1831 18.0254 23.9998 18.0254C24.8331 18.0254 25.5373 18.3129 26.1123 18.8879C26.6873 19.4629 26.9748 20.1671 26.9748 21.0004C26.9748 21.8171 26.6873 22.5129 26.1123 23.0879C25.5373 23.6629 24.8331 23.9504 23.9998 23.9504Z" fill="white"/>
</g>
</svg>
