<svg width="48" height="48" viewBox="0 0 48 48" fill="none" xmlns="http://www.w3.org/2000/svg">
<mask id="mask0_1226_8469" style="mask-type:alpha" maskUnits="userSpaceOnUse" x="12" y="12" width="24" height="24">
<rect x="12" y="12" width="24" height="24" fill="#D9D9D9"/>
</mask>
<g mask="url(#mask0_1226_8469)">
<path d="M29.1 26.4751C28.45 26.4751 27.8958 26.2459 27.4375 25.7876C26.9792 25.3293 26.75 24.7751 26.75 24.1251C26.75 23.4751 26.9792 22.9209 27.4375 22.4626C27.8958 22.0043 28.45 21.7751 29.1 21.7751C29.75 21.7751 30.3042 22.0043 30.7625 22.4626C31.2208 22.9209 31.45 23.4751 31.45 24.1251C31.45 24.7751 31.2208 25.3293 30.7625 25.7876C30.3042 26.2459 29.75 26.4751 29.1 26.4751ZM24.2 32.0001V30.7251C24.2 30.2918 24.2917 29.9209 24.475 29.6126C24.6583 29.3043 24.9167 29.0668 25.25 28.9001C25.8667 28.5834 26.4917 28.3501 27.125 28.2001C27.7583 28.0501 28.4167 27.9751 29.1 27.9751C29.7833 27.9751 30.4417 28.0459 31.075 28.1876C31.7083 28.3293 32.3333 28.5668 32.95 28.9001C33.2833 29.0501 33.5417 29.2834 33.725 29.6001C33.9083 29.9168 34 30.2918 34 30.7251V32.0001H24.2ZM22 23.9751C20.9 23.9751 20 23.6251 19.3 22.9251C18.6 22.2251 18.25 21.3251 18.25 20.2251C18.25 19.1251 18.6 18.2251 19.3 17.5251C20 16.8251 20.9 16.4751 22 16.4751C23.1 16.4751 24 16.8251 24.7 17.5251C25.4 18.2251 25.75 19.1251 25.75 20.2251C25.75 21.3251 25.4 22.2251 24.7 22.9251C24 23.6251 23.1 23.9751 22 23.9751ZM14 32.0001V29.6501C14 29.0834 14.1417 28.5626 14.425 28.0876C14.7083 27.6126 15.1333 27.2501 15.7 27.0001C16.8167 26.5001 17.8875 26.1251 18.9125 25.8751C19.9375 25.6251 20.9667 25.5001 22 25.5001C22.5333 25.5001 23.0083 25.5251 23.425 25.5751C23.8417 25.6251 24.2917 25.7001 24.775 25.8001L23.5 27.0751C23.1667 27.4084 22.95 27.7584 22.85 28.1251C22.75 28.4918 22.7 29.2834 22.7 30.5001V32.0001H14Z" fill="#413E45"/>
</g>
</svg>
